<?xml version="1.0" encoding="UTF-8"?>
<svg width="17px" height="17px" viewBox="0 0 17 17" version="1.1" xmlns="http://www.w3.org/2000/svg" xmlns:xlink="http://www.w3.org/1999/xlink">
    <title>删  除</title>
    <g id="页面-1" stroke="none" stroke-width="1" fill="none" fill-rule="evenodd">
        <g id="确认订单备份-28" transform="translate(-177.000000, -669.000000)" fill-rule="nonzero">
            <g id="删--除" transform="translate(177.000000, 669.000000)">
                <path d="M8.50042259,7.83251996e-06 C6.24503493,-0.00305375685 4.0811393,0.891536536 2.48633792,2.48633792 C0.891536536,4.0811393 -0.00305375685,6.24503493 7.83252011e-06,8.50042259 C-0.00282901997,10.7556639 0.891860489,12.9193421 2.48663746,14.5139605 C4.08141443,16.1085789 6.24518158,17.0030533 8.50042259,16.9999922 C10.7555172,17.0028285 12.919067,16.108255 14.513661,14.513661 C16.108255,12.919067 17.0028285,10.7555172 16.9999922,8.50042259 C17.0030533,6.24518158 16.1085789,4.08141443 14.5139605,2.48663746 C12.9193421,0.891860489 10.7556639,-0.00282901997 8.50042259,7.83251996e-06 Z" id="路径" fill="#FFFFFF"></path>
                <path d="M8.50042259,7.83251999e-06 C6.24503493,-0.00305375685 4.0811393,0.891536536 2.48633792,2.48633792 C0.891536536,4.0811393 -0.00305375685,6.24503493 7.83251999e-06,8.50042259 C-0.00282901997,10.7556639 0.891860489,12.9193421 2.48663746,14.5139605 C4.08141443,16.1085789 6.24518158,17.0030533 8.50042259,16.9999922 C10.7555172,17.0028285 12.919067,16.108255 14.513661,14.513661 C16.108255,12.919067 17.0028285,10.7555172 16.9999922,8.50042259 C17.0030533,6.24518158 16.1085789,4.08141443 14.5139605,2.48663746 C12.9193421,0.891860489 10.7556639,-0.00282901997 8.50042259,7.83251999e-06 Z M12.069369,12.0702142 C11.8314485,12.2960856 11.4583171,12.2960856 11.2203966,12.0702142 L8.50042259,9.35018945 L5.78043166,12.0702142 C5.54229053,12.2971359 5.16794388,12.2971359 4.92980274,12.0702142 C4.70341736,11.8321853 4.70341736,11.4584593 4.92980274,11.2204304 L7.64981057,8.50042259 L4.92980274,5.78043166 C4.70288097,5.54229053 4.70288097,5.16794388 4.92980274,4.92980274 C5.16794388,4.70288097 5.54229053,4.70288097 5.78043166,4.92980274 L8.50042259,7.64981057 L11.2204135,4.92980274 C11.458334,4.70393134 11.8314654,4.70393134 12.0693859,4.92980274 C12.2963077,5.16794388 12.2963077,5.54229053 12.0693859,5.78043166 L9.34939499,8.50042259 L12.069369,11.2204135 C12.2025975,11.3208678 12.2809346,11.4780438 12.2809346,11.6448997 C12.2809346,11.8117556 12.2025975,11.9689316 12.069369,12.0693859 L12.069369,12.0702142 Z" id="形状" fill="#FF7B02"></path>
            </g>
        </g>
    </g>
</svg>