{
  "usingComponents": {
    "van-swipe-cell": "@vant/weapp/swipe-cell/index",
    "van-overlay": "@vant/weapp/overlay/index"
  },
  "navigationBarTitleText": "选择商品列表",
  "navigationBarTextStyle": "black",
  "navigationBarBackgroundColor": "#ffffff",
  "navigationStyle": "default"
}