{
  "usingComponents": {
    "login": "/assets/components/login/index",
    "navbar": "/assets/components/navbar/index",
    "toast": "/assets/components/toast/toast",
	"van-search": "@vant/weapp/search/index"
  },
  "disableScroll": true
}